<!-- 
     This file is part of LibreWands.

    LibreWands is free software: you can redistribute it and/or modify it under the terms of the GNU General Public License as published by the Free Software Foundation, either version 3 of the License, or (at your option) any later version.

    LibreWands is distributed in the hope that it will be useful, but WITHOUT ANY WARRANTY; without even the implied warranty of MERCHANTABILITY or FITNESS FOR A PARTICULAR PURPOSE. See the GNU General Public License for more details.

    You should have received a copy of the GNU General Public License along with LibreWands. If not, see https://www.gnu.org/licenses/.
-->

<svg width="150" height="200">
	<rect y="0%" x="0%" width="100%" height="100%" fill="white" stroke="black" />
	<rect y="25%" x="12.5%" width="34%" height="100" fill="white" stroke="black" />
	<line y1="100" x1="70" x2="125" y2="100" stroke="black" />
	<line y1="100" x1="125" x2="125" y2="150" stroke="black" />

<circle cx="50" cy="50" r="2" stroke="black" fill="red" />
<text x="50" y="45" fill="black" font-size="5">Cumin City</text>

<circle cx="50" cy="150" r="2" stroke="black" fill="red" />
<text x="50" y="155" fill="black" font-size="5">Cardamom City</text>

<circle cx="19" cy="100" r="2" stroke="black" fill="red" />
<text x="24" y="100" fill="black" font-size="5">Vanilla City</text>

<circle cx="70" cy="110" r="2" stroke="black" fill="red" />
<text x="75" y="110" fill="black" font-size="5">Bay City</text>

<circle cx="70" cy="90" r="2" stroke="black" fill="red" />
<text x="75" y="90" fill="black" font-size="5">Rosemary City</text>

<line x1="65" y1="92" x2="70" y2="98" stroke="black" />
<line x1="75" y1="92" x2="70" y2="98" stroke="black" />

<circle cx="125" cy="150" r="2" stroke="black" fill="red" />
<text x="125" y="157" fill="black" font-size="5">Coffee City</text>

<line x1="120" y1="152" x2="130" y2="152" stroke="black" />
</svg> 
