<?xml version="1.0" ?>

<!-- 
     This file is part of LibreWands.

    LibreWands is free software: you can redistribute it and/or modify it under the terms of the GNU General Public License as published by the Free Software Foundation, either version 3 of the License, or (at your option) any later version.

    LibreWands is distributed in the hope that it will be useful, but WITHOUT ANY WARRANTY; without even the implied warranty of MERCHANTABILITY or FITNESS FOR A PARTICULAR PURPOSE. See the GNU General Public License for more details.

    You should have received a copy of the GNU General Public License along with LibreWands. If not, see https://www.gnu.org/licenses/.
-->


<svg width="1200" height="1400">
	<rect y="0%" x="0%" width="100%" height="100%" fill="white" stroke="black" />

<g stroke="black" stroke-width="3">
	<line x1="200" y1="400" x2="600" y2="400" />
	<line x1="200" y1="600" x2="800" y2="600" />
	<line x1="200" y1="800" x2="800" y2="800" />
	<line x1="200" y1="1000" x2="800" y2="1000" />
	<line x1="200" y1="1200" x2="1000" y2="1200" />
</g>

<g stroke="black" stroke-width="3">
	<line x1="200" y1="200" x2="200" y2="1200" />
	<line x1="400" y1="400" x2="400" y2="1000" />
	<line x1="600" y1="200" x2="600" y2="1000" />
	<line x1="800" y1="200" x2="800" y2="1200" />
</g>

<g stroke="black" stroke-width="3">
	<circle cx="1000" cy="1200" r="10" fill="red" />
	<circle cx="200" cy="1200" r="10" fill="red" />
	<circle cx="600" cy="1000" r="10" fill="red" />
	<circle cx="400" cy="800" r="10" fill="red" />
	<circle cx="800" cy="800" r="10" fill="red" />
	<circle cx="200" cy="600" r="10" fill="red" />
	<circle cx="600" cy="500" r="10" fill="red" />
	<circle cx="600" cy="700" r="10" fill="red" />
	<circle cx="400" cy="400" r="10" fill="red" />
	<circle cx="800" cy="200" r="10" fill="red" />
</g>

<g>
	<rect y="190" x="190" width="20" height="20" fill="blue" stroke="black" />
	<rect y="990" x="190" width="20" height="20" fill="blue" stroke="black" />
	<rect y="990" x="790" width="20" height="20" fill="blue" stroke="black" />
	<rect y="190" x="590" width="20" height="20" fill="blue" stroke="black" />
</g>

<text x="250" y="100" fill="black" font-size="100">Region of Botan</text>

<g font-size="25" fill="black">
	<text x="1010" y="1230">Nutmeg City</text>
	<text x="210" y="1230">Basil City</text>
	<text x="610" y="1030">Paprika City</text>
	<text x="410" y="830">Cardamom City</text>
	<text x="810" y="830">Coffee City</text>
	<text x="210" y="630">Vanilla City</text>
	<text x="610" y="530">Rosemary City</text>
	<text x="610" y="730">Bay City</text>
	<text x="410" y="430">Cumin City</text>
	<text x="810" y="230">Dill City</text>
</g>

<g font-size="25" fill="black">
	<text y="180" x="210">Salt Town</text>
	<text y="980" x="210">Pepper Town</text>
	<text y="980" x="810">Chilli Town</text>
	<text y="180" x="610">Oregano Town</text>
</g>

<g font-size="20" fill="black">
	<text y="1200" x="900">R01</text>
	<text y="1200" x="500">R02</text>
	<text y="1100" x="200">R03</text>
	<text y="1100" x="800">R04</text>
	<text y="1000" x="300">R05</text>
	<text y="1000" x="500">R06</text>
	<text y="1000" x="700">R07</text>
	<text y="0900" x="200">R08</text>
	<text y="0900" x="400">R09</text>
	<text y="0900" x="600">R10</text>
	<text y="0900" x="800">R11</text>
	<text y="0800" x="300">R12</text>
	<text y="0800" x="500">R13</text>
	<text y="0800" x="700">R14</text>
	<text y="0700" x="200">R15</text>
	<text y="0700" x="400">R16</text>
	<text y="0750" x="600">R17</text>
	<text y="0650" x="600">R18</text>
	<text y="0700" x="800">R19</text>
	<text y="0600" x="300">R20</text>
	<text y="0600" x="500">R21</text>
	<text y="0600" x="700">R22</text>
	<text y="0500" x="200">R23</text>
	<text y="0500" x="400">R24</text>
	<text y="0550" x="600">R25</text>
	<text y="0450" x="600">R26</text>
	<text y="0400" x="800">R27</text>
	<text y="0400" x="300">R28</text>
	<text y="0400" x="500">R29</text>
	<text y="0300" x="200">R30</text>
	<text y="0300" x="600">R31</text>
</g>

</svg> 
